Cholesterol and Heart Disease
…
"../../data/mortality_summary.csv"

Lecture: Causes of Death

In the upcoming lectures, we are going to be investigating some aspects of cardiovascular disease, which has been the leading cause of death in the world for decades.

Well begin by exploring a data set that reveals the major causes of death in the world from 1900 to 2015.

causes <- read_csv("../../data/causes_of_death.csv") %>%
  rename(age_adj_death_rate = `Age Adjusted Death Rate`)

causes %>%
  count(Year)

## # A tibble: 116 x 2
##     Year     n
##    <dbl> <int>
##  1  1900     5
##  2  1901     5
##  3  1902     5
##  4  1903     5
##  5  1904     5
##  6  1905     5
##  7  1906     5
##  8  1907     5
##  9  1908     5
## 10  1909     5
## #  with 106 more rows
…
The Framingham Heart Study is a long-term observational study of heart disease

It began in 1948 studying a group of over 5000 volunteer participants from Framingham, MA

The study has continued for decades, where children of previous participants have been studied

You can read an overview of the study here

We are going to explore data on 3842 subjects from the first wave of the study, collected in 1956.

fram <- read_csv("../../data/framingham.csv")
fram

## # A tibble: 3,842 x 9
##      AGE SYSBP DIABP TOTCHOL CURSMOKE DIABETES GLUCOSE DEATH ANYCHD
##    <dbl> <dbl> <dbl>   <dbl>    <dbl>    <dbl>   <dbl> <dbl>  <dbl>
##  1    39  106     70     195        0        0      77     0      1
##  2    46  121     81     250        0        0      76     0      0
##  3    48  128.    80     245        1        0      70     0      0
##  4    61  150     95     225        1        0     103     1      0
##  5    46  130     84     285        1        0      85     0      0
##  6    43  180    110     228        0        0      99     0      1
##  7    63  138     71     205        0        0      85     0      1
##  8    45  100     71     313        1        0      78     0      0
##  9    52  142.    89     260        0        0      79     0      0
## 10    43  162    107     225        1        0      88     0      0
## #  with 3,832 more rows
…
The records include data frorm a longitudinal study on serum cholesterol for 2355 participants who maintained the diets for a year or more

The subjects were randomly divided into a control group on a standard diet (including animal fats and margarines) and a diet group (where vegetable oil and corn oil margarine were used in place of half of the saturated fats)

There were ethical issues with experimenting on the patients, however, prior to the diet phase patients were able to decline participation. There are questions about the patients abilities to provide consent. For those interested, you can read about recent apologies for the way institutionalized patients were treated in Minnesota in this article

For more background on the Minnesota Coronary Experiment, check out this article from Scientific American from 2017

We will first investigate the data on changes in cholesterol and then we will look into mortality rates for the diets. The data for each individual in the 1968 study is not available; only summary statistics are available. Therefore, we will use artificial synthetic data, based on those summary statistics created by the Data8 instructors at UC-Berkeley.

serum_cholesterol <- read_csv("../../data/serum_cholesterol.csv") %>%
  rename(chol_change = `Change in Serum Cholesterol`)
serum_cholesterol

## # A tibble: 2,355 x 2
##    Condition chol_change
##    <chr>           <dbl>
##  1 Diet            -8.37
##  2 Diet           -23.7 
##  3 Diet           -29.0 
##  4 Diet           -10.9 
##  5 Diet           -17.9 
##  6 Diet           -11.7 
##  7 Diet           -13.6 
##  8 Diet            -2.24
##  9 Diet            -2.04
## 10 Diet           -13.6 
## #  with 2,345 more rows
…
