Madison Weather
…
  mutate(month = month(date, label=TRUE)) %>%
  mutate(year = year(date)) %>%
  filter(year < 2020 & year > 1869) %>%
  mutate(period = cut(year,
                      breaks = breaks,
                      labels = labels)) %>%
  group_by(period,month) %>%
  summarize(n=n(),
            tmin = mean(tmin),
            tmax = mean(tmax),
            tavg = mean(tavg),
            prcp = sum(prcp))
mw_month

## # A tibble: 60 x 7
## # Groups:   period [5]
##    period    month     n  tmin  tmax  tavg  prcp
##    <fct>     <ord> <int> <dbl> <dbl> <dbl> <dbl>
##  1 1870-1899 Jan     930  8.60  23.4  16.0  53.9
##  2 1870-1899 Feb     847 12.2   27.5  19.9  47.3
##  3 1870-1899 Mar     930 22.3   36.3  29.3  67.2
##  4 1870-1899 Apr     900 37.8   54.0  45.9  74.1
##  5 1870-1899 May     930 50.0   66.7  58.4 104. 
##  6 1870-1899 Jun     900 60.1   76.5  68.3 129. 
##  7 1870-1899 Jul     930 64.7   80.9  72.8 116. 
##  8 1870-1899 Aug     930 62.5   78.4  70.4  90.6
##  9 1870-1899 Sep     900 54.2   70.1  62.1  96.1
## 10 1870-1899 Oct     930 41.9   57.0  49.5  73.7
## #  with 50 more rows
…
mw_day <- mw %>%
  mutate(tavg = (tmin+tmax)/2) %>%
  mutate(year = year(date)) %>%
  mutate(month = month(date, label=TRUE)) %>%
  mutate(day = day(date)) %>%
  filter(year < 2020 & year > 1869) %>%
  mutate(period = cut(year,
                      breaks = breaks,
                      labels = labels)) %>%
  group_by(period,month,day) %>%
  summarize(n=n(),tavg = mean(tavg))
mw_day

## # A tibble: 1,830 x 5
## # Groups:   period, month [60]
##    period    month   day     n  tavg
##    <fct>     <ord> <int> <int> <dbl>
##  1 1870-1899 Jan       1    30  19.9
##  2 1870-1899 Jan       2    30  17.5
##  3 1870-1899 Jan       3    30  15.2
##  4 1870-1899 Jan       4    30  15  
##  5 1870-1899 Jan       5    30  16.6
##  6 1870-1899 Jan       6    30  15.9
##  7 1870-1899 Jan       7    30  14.7
##  8 1870-1899 Jan       8    30  14.9
##  9 1870-1899 Jan       9    30  14.9
## 10 1870-1899 Jan      10    30  15.3
## #  with 1,820 more rows
…
## answer the question
mw2 %>%
  group_by(month,period) %>%
  summarize(tmax = mean(tmax),
            tavg = mean(tavg),
            tmin = mean(tmin)) #%>%

## # A tibble: 60 x 5
## # Groups:   month [12]
##    month period     tmax  tavg  tmin
##    <ord> <fct>     <dbl> <dbl> <dbl>
##  1 Jan   1870-1899  23.4  16.0  8.60
##  2 Jan   1900-1929  25.0  17.3  9.53
##  3 Jan   1930-1959  27.9  19.8 11.6 
##  4 Jan   1960-1989  24.5  15.8  7.03
##  5 Jan   1990-2019  27.5  19.6 11.7 
##  6 Feb   1870-1899  27.5  19.9 12.2 
##  7 Feb   1900-1929  26.8  19.1 11.4 
##  8 Feb   1930-1959  30.8  22.4 14.0 
##  9 Feb   1960-1989  29.9  20.4 11.0 
## 10 Feb   1990-2019  31.6  23.3 14.9 
## #  with 50 more rows
…
6

Filter the Madison weather data set to keep only days that achieve the record high precipitation for that day (including ties) and select the period, year, month, day, and pmax variables.

mw_pr_6 = mw2 %>%
  select(date,period,year,month,day,prcp) %>%
  drop_na() %>%
  group_by(month,day) %>%
  slice_max(prcp, n=1) %>% #?slice_max()
  arrange(month,day)
mw_pr_6

## # A tibble: 369 x 6
## # Groups:   month, day [366]
##    date       period     year month   day  prcp
##    <date>     <fct>     <dbl> <ord> <int> <dbl>
##  1 1892-01-01 1870-1899  1892 Jan       1 1.8  
##  2 1876-01-02 1870-1899  1876 Jan       2 1.74 
##  3 1906-01-03 1900-1929  1906 Jan       3 0.7  
##  4 1874-01-04 1870-1899  1874 Jan       4 1.22 
##  5 1939-01-05 1930-1959  1939 Jan       5 1.11 
##  6 1885-01-06 1870-1899  1885 Jan       6 1.3  
##  7 2019-01-07 1990-2019  2019 Jan       7 1.1  
##  8 1937-01-08 1930-1959  1937 Jan       8 1.04 
##  9 1889-01-09 1870-1899  1889 Jan       9 0.75 
## 10 2017-01-10 1990-2019  2017 Jan      10 0.580
## #  with 359 more rows

7

Use the data from the previous problem. Count for every year the number of record high precipitation events that occur. Plot these counts by year and add a trend line/curve. Does it appear that the rate of record high precipitation days is increasing?

mw_pr_7 = mw_pr_6 %>%
  group_by(period,year) %>%
  summarize(n=n())
mw_pr_7

## # A tibble: 133 x 3
## # Groups:   period [5]
##    period     year     n
##    <fct>     <dbl> <int>
##  1 1870-1899  1870     2
##  2 1870-1899  1871     5
##  3 1870-1899  1872     1
##  4 1870-1899  1873     1
##  5 1870-1899  1874     3
##  6 1870-1899  1875     2
##  7 1870-1899  1876     6
##  8 1870-1899  1877     2
##  9 1870-1899  1878     3
## 10 1870-1899  1879     6
## #  with 123 more rows
…
